[gd_scene load_steps=2 format=2]

[ext_resource path="res://graph_nodes/buffer.gd" type="Script" id=1]

[node name="buffer" type="GraphNode"]
title = "Buffer"
resizable = true
slot/0/left_enabled = true
slot/0/left_type = 0
slot/0/left_color = Color( 1, 1, 1, 1 )
slot/0/right_enabled = true
slot/0/right_type = 0
slot/0/right_color = Color( 1, 1, 1, 1 )
script = ExtResource( 1 )

[node name="value" type="Label" parent="."]
margin_left = 16.0
margin_top = 24.0
margin_right = 54.0
margin_bottom = 38.0
clip_text = true
