[gd_scene load_steps=2 format=2]

[ext_resource path="res://graph_nodes/osc_input_method.gd" type="Script" id=1]

[node name="osc_method_in" type="GraphNode"]
title = "OSC Method In"
resizable = true
slot/0/left_enabled = true
slot/0/left_type = 1
slot/0/left_color = Color( 1, 0, 0, 1 )
slot/0/right_enabled = false
slot/0/right_type = 0
slot/0/right_color = Color( 1, 1, 1, 1 )
slot/1/left_enabled = false
slot/1/left_type = 0
slot/1/left_color = Color( 1, 1, 1, 1 )
slot/1/right_enabled = false
slot/1/right_type = 0
slot/1/right_color = Color( 1, 1, 1, 1 )
script = ExtResource( 1 )

[node name="path" type="LineEdit" parent="."]
margin_left = 16.0
margin_top = 24.0
margin_right = 112.0
margin_bottom = 48.0

[node name="SpinBox" type="SpinBox" parent="."]
margin_left = 16.0
margin_top = 49.0
margin_right = 112.0
margin_bottom = 73.0

[connection signal="text_entered" from="path" to="." method="_on_path_text_entered"]
[connection signal="value_changed" from="SpinBox" to="." method="_on_SpinBox_value_changed"]
